ip/comms/fm/fm_tx/fm_tx_runsim.txt
VCD info: dumpfile fm_tx.vcd opened for output.
                  TIME                 freq (Khz)       Avg freq (Khz)
                   0ps                 0	          0
           156300000ps             64020	      64020
           260500000ps             96061	      76834
           364600000ps             96154	      82350
           468800000ps             96061	      85397
           572900000ps             96154	      87352
           677100000ps             96061	      88692
           781300000ps             96061	      89675
           937500000ps             64061	      85406
          1041700000ps             96061	      86472
          1145800000ps             96154	      87352
          1250000000ps             96061	      88078
          1354100000ps             96154	      88698
          1458300000ps             96061	      89224
          1562500000ps             96061	      89680
          1666600000ps             96154	      90085
          1822900000ps             64020	      87849
          1927000000ps             96154	      88298
          2031200000ps             96061	      88696
          2135300000ps             96154	      89060
          2239500000ps             96061	      89385
          2343700000ps             96061	      89682
          2447800000ps             96154	      89957
          2604100000ps             64020	      88400
          2708200000ps             96154	      88698
          2812400000ps             96061	      88971
          2916500000ps             96154	      89227
          3020700000ps             96061	      89463
          3124900000ps             96061	      89683
          3229000000ps             96154	      89892
          3333200000ps             96061	      90085
          3489400000ps             64061	      88919
          3593600000ps             96061	      89127
          3697700000ps             96154	      89324
          3801900000ps             96061	      89509
          3906100000ps             96061	      89684
          4010200000ps             96154	      89852
          4114400000ps             96061	      90009
          4270600000ps             64061	      89060
          4374800000ps             96061	      89226
          4478900000ps             96154	      89387
          4583100000ps             96061	      89539
          4687300000ps             96061	      89684
          4791400000ps             96154	      89825
          4895600000ps             96061	      89957
          4999700000ps             96154	      90086
          5156000000ps             64020	      89296
          5260100000ps             96154	      89432
          5364300000ps             96061	      89561
          5468500000ps             96061	      89684
          5572600000ps             96154	      89805
          5676800000ps             96061	      89920
          5780900000ps             96154	      90032
          5937200000ps             64020	      89347
          6041300000ps             96154	      89465
          6145500000ps             96061	      89577
          6249700000ps             96061	      89685
          6353800000ps             96154	      89791
          6458000000ps             96061	      89892
          6562100000ps             96154	      89991
          6666300000ps             96061	      90086
          6822500000ps             64061	      89490
          6926700000ps             96061	      89589
          7030900000ps             96061	      89685
          7135000000ps             96154	      89779
          7239200000ps             96061	      89870
          7343300000ps             96154	      89959
          7447500000ps             96061	      90044
          7551700000ps             96061	      90127
          7707900000ps             64061	      89599
          7812100000ps             96061	      89685
          7916200000ps             96154	      89770
          8020400000ps             96061	      89852
          8124500000ps             96154	      89932
          8228700000ps             96061	      90010
          8332900000ps             96061	      90086
          8489100000ps             64061	      89607
          8593300000ps             96061	      89685
          8697400000ps             96154	      89762
          8801600000ps             96061	      89837
          8905700000ps             96154	      89911
          9009900000ps             96061	      89982
          9114100000ps             96061	      90052
          9218200000ps             96154	      90120
          9374500000ps             64020	      89685
          9478600000ps             96154	      89756
          9582800000ps             96061	      89825
          9686900000ps             96154	      89893
          9791100000ps             96061	      89958
          9895300000ps             96061	      90023
          9999400000ps             96154	      90086
         10103600000ps             96061	      90148
         10259800000ps             64061	      89751
         10364000000ps             96061	      89814
         10468100000ps             96154	      89877
         10572300000ps             96061	      89938
         10676500000ps             96061	      89998
         10780600000ps             96154	      90057
         10884800000ps             96061	      90115
         10988900000ps             96154	      90172
         11145200000ps             64020	      89805
         11249300000ps             96154	      89864
         11353500000ps             96061	      89921
         11457700000ps             96061	      89977
         11561800000ps             96154	      90032
         11666000000ps             96061	      90086
         11770100000ps             96154	      90140
         11926400000ps             64020	      89797
